<svg width="105" height="129" viewBox="0 0 105 129" fill="none" xmlns="http://www.w3.org/2000/svg">
<path d="M0 10C0 4.47715 4.47715 0 10 0H105V129H10C4.47715 129 0 124.523 0 119V10Z" fill="url(#paint0_linear)"/>
<path d="M38.4839 43.2258V53.7097H62.6774V43.2258H38.4839ZM61.0645 52.0968H40.0968V44.8387H61.0645V52.0968Z" fill="white"/>
<path d="M58.6451 65H42.5161V66.6129H58.6451V65Z" fill="white"/>
<path d="M48.9676 58.5483H44.1289V60.1612H48.9676V58.5483Z" fill="white"/>
<path d="M57.0321 58.5483H52.1934V60.1612H57.0321V58.5483Z" fill="white"/>
<path d="M48.9676 61.7742H44.1289V63.3871H48.9676V61.7742Z" fill="white"/>
<path d="M57.0321 61.7742H52.1934V63.3871H57.0321V61.7742Z" fill="white"/>
<path d="M62.6776 71.4517H49.7744V73.0646H62.6776V71.4517Z" fill="white"/>
<path d="M62.6776 74.6775H57.8389V76.2904H62.6776V74.6775Z" fill="white"/>
<path d="M54.6131 74.6775H49.7744V76.2904H54.6131V74.6775Z" fill="white"/>
<path d="M69.1288 60.1612C68.6837 60.1612 68.3224 59.7991 68.3224 59.3548C68.3224 58.9104 68.6837 58.5483 69.1288 58.5483C69.574 58.5483 69.9353 58.9104 69.9353 59.3548H71.5482C71.5482 58.3048 70.8716 57.4177 69.9353 57.0838V55.3225H68.3224V57.0838C67.3861 57.4177 66.7095 58.3048 66.7095 59.3548C66.7095 60.6886 67.795 61.7741 69.1288 61.7741C69.574 61.7741 69.9353 62.1362 69.9353 62.5806C69.9353 63.0249 69.574 63.387 69.1288 63.387C68.6837 63.387 68.3224 63.0249 68.3224 62.5806H66.7095C66.7095 63.6306 67.3861 64.5177 68.3224 64.8515V66.6128H69.9353V64.8515C70.8716 64.5177 71.5482 63.6306 71.5482 62.5806C71.5482 61.2467 70.4627 60.1612 69.1288 60.1612Z" fill="white"/>
<path d="M74.774 60.1614H73.1611V61.7743H74.774V60.1614Z" fill="white"/>
<path d="M65.0968 60.1614H63.4839V61.7743H65.0968V60.1614Z" fill="white"/>
<path d="M76.5492 65.8314C77.4984 64.3855 78 62.7032 78 60.9677C78 56.0766 74.0202 52.0968 69.129 52.0968C68.2895 52.0968 67.4798 52.2218 66.7097 52.4403V44.0323C66.7097 41.8089 64.9008 40 62.6774 40H32.0323C29.8089 40 28 41.8089 28 44.0323V51.2903H34.4516V57.2992L31.1855 61.4976C30.729 61.9024 30.4145 62.5734 30.3153 63.3605L29.6444 68.7331C29.6242 68.8992 29.6129 69.0661 29.6129 69.2331V76.0895C29.6129 76.2573 29.6242 76.4234 29.6444 76.5895L30.3121 81.9355H28V90H39.2903V85.9677H69.129C71.3524 85.9677 73.1613 84.1589 73.1613 81.9355V77.9032H66.7097V69.4952C67.4798 69.7137 68.2895 69.8387 69.129 69.8387C71.504 69.8387 73.7355 68.9129 75.4113 67.2306L74.2694 66.0919C72.8976 67.4685 71.0718 68.2258 69.129 68.2258C65.1266 68.2258 61.871 64.9694 61.871 60.9677C61.871 56.9661 65.1266 53.7097 69.129 53.7097C73.1315 53.7097 76.3871 56.9661 76.3871 60.9677C76.3871 62.3879 75.9766 63.7637 75.2008 64.946L76.5492 65.8314ZM29.6129 49.6774V44.0323C29.6129 42.6984 30.6984 41.6129 32.0323 41.6129C33.3661 41.6129 34.4516 42.6984 34.4516 44.0323V49.6774H29.6129ZM31.2258 69.2331C31.2258 69.1331 31.2323 69.0323 31.2444 68.9331L31.9153 63.5613C31.9718 63.1105 32.1371 62.796 32.2677 62.6944L37.0202 56.6242L37.0952 56.5089C37.275 56.1726 37.4944 56.129 37.6653 56.129C38.1169 56.129 38.4839 56.496 38.4839 56.9476V57.2218C38.4839 57.3935 38.4315 57.5581 38.3323 57.6976L35.2032 62.0782C34.7113 62.7653 34.4516 63.5758 34.4516 64.421V69.0774C34.4516 69.6992 34.5992 70.3234 34.8766 70.8806L35.5661 72.2581H35.2581V73.871H37.2048L40.9726 70.1032C41.1411 69.9355 41.3742 69.8387 41.6121 69.8387C42.1105 69.8387 42.5161 70.2444 42.5161 70.7427C42.5161 70.9847 42.4226 71.2113 42.2516 71.3823L36.0645 77.5694V81.9355H31.9379L31.2444 76.3903C31.2323 76.2903 31.2258 76.1895 31.2258 76.0895V69.2331ZM37.6774 88.3871H29.6129V83.5484H37.6774V88.3871ZM71.5484 79.5161V81.9355C71.5484 83.2694 70.4629 84.3548 69.129 84.3548H41.7081C42.2153 83.6806 42.5161 82.8427 42.5161 81.9355V79.5161H71.5484ZM65.0968 53.0758C62.229 54.5476 60.2581 57.529 60.2581 60.9677C60.2581 64.4065 62.229 67.3879 65.0968 68.8597V77.9032H40.9032V81.9355C40.9032 82.9855 40.2266 83.8726 39.2903 84.2065V81.9355H37.6774V78.2371L43.3919 72.5226C43.8677 72.0476 44.129 71.4153 44.129 70.7427C44.129 69.3548 43 68.2258 41.6121 68.2258C40.9492 68.2258 40.3008 68.4944 39.8323 68.9629L37.0919 71.7032L36.3194 70.1597C36.1524 69.825 36.0645 69.4508 36.0645 69.0774V64.421C36.0645 63.9137 36.2202 63.4282 36.5153 63.0145L39.6444 58.6339C39.9403 58.2202 40.0968 57.7315 40.0968 57.221V56.9468C40.0968 55.6073 39.0056 54.5161 37.6653 54.5161C37.0395 54.5161 36.4823 54.7621 36.0645 55.2048V44.0323C36.0645 43.121 35.7492 42.2887 35.2371 41.6129H62.6774C64.0113 41.6129 65.0968 42.6984 65.0968 44.0323V53.0758Z" fill="white"/>
<defs>
<linearGradient id="paint0_linear" x1="0" y1="0" x2="126.314" y2="102.814" gradientUnits="userSpaceOnUse">
<stop stop-color="#65D1DA"/>
<stop offset="1" stop-color="#2A3D82"/>
</linearGradient>
</defs>
</svg>